<svg width="14" height="14" viewBox="0 0 14 14" fill="none" xmlns="http://www.w3.org/2000/svg">
<path d="M6.4165 1.16675C9.3145 1.16675 11.6665 3.51875 11.6665 6.41675C11.6665 9.31475 9.3145 11.6667 6.4165 11.6667C3.5185 11.6667 1.1665 9.31475 1.1665 6.41675C1.1665 3.51875 3.5185 1.16675 6.4165 1.16675ZM6.4165 10.5001C8.67225 10.5001 10.4998 8.6725 10.4998 6.41675C10.4998 4.16041 8.67225 2.33341 6.4165 2.33341C4.16017 2.33341 2.33317 4.16041 2.33317 6.41675C2.33317 8.6725 4.16017 10.5001 6.4165 10.5001ZM11.3661 10.5415L13.0163 12.1912L12.1909 13.0166L10.5413 11.3663L11.3661 10.5415Z" fill="#2A3737"/>
</svg>
